<?xml version="1.0" encoding="UTF-8"?>
<svg width="30px" height="30px" viewBox="0 0 30 30" version="1.1" xmlns="http://www.w3.org/2000/svg" xmlns:xlink="http://www.w3.org/1999/xlink">
    <!-- Generator: Sketch 41.2 (35397) - http://www.bohemiancoding.com/sketch -->
    <title>Group 13</title>
    <desc>Created with Sketch.</desc>
    <defs></defs>
    <g id="v1" stroke="none" stroke-width="1" fill="none" fill-rule="evenodd" stroke-linecap="square">
        <g id="on-my-mind" transform="translate(-328.000000, -894.000000)" stroke="#979797">
            <g id="Group-7" transform="translate(41.000000, 875.000000)">
                <g id="Group-9">
                    <g id="Group-13" transform="translate(288.000000, 20.000000)">
                        <path d="M22,11 C22,17.0738333 17.0750556,22 11,22 C4.92494444,22 0,17.0738333 0,11 C0,4.92494444 4.92494444,0 11,0 C17.0750556,0 22,4.92494444 22,11 L22,11 Z" id="Stroke-105" stroke-width="2"></path>
                        <polygon id="Stroke-106" stroke-width="1.19999993" points="19.8255595 19 19 19.8256131 27.1738566 28 28 27.1743869"></polygon>
                    </g>
                </g>
            </g>
        </g>
    </g>
</svg>